{
   "response":{
      "status":"ok",
      "userTier":"developer",
      "total":89207,
      "startIndex":1,
      "pageSize":10,
      "currentPage":1,
      "pages":8921,
      "edition":{
         "id":"politics",
         "webTitle":"Politics",
         "webUrl":"https://www.theguardian.com/politics",
         "apiUrl":"https://content.guardianapis.com/politics",
         "code":"default"
      },
      "section":{
         "id":"politics",
         "webTitle":"Politics",
         "webUrl":"https://www.theguardian.com/politics",
         "apiUrl":"https://content.guardianapis.com/politics",
         "editions":[
            {
               "id":"politics",
               "webTitle":"Politics",
               "webUrl":"https://www.theguardian.com/politics",
               "apiUrl":"https://content.guardianapis.com/politics",
               "code":"default"
            }
         ]
      },
      "results":[
         {
            "id":"politics/2016/jul/09/government-dashes-hopes-of-second-eu-referendum-in-e-petition-response",
            "type":"article",
            "sectionId":"politics",
            "sectionName":"Politics",
            "webPublicationDate":"2016-07-09T16:16:18Z",
            "webTitle":"Brexit: Government dashes hopes of second EU referendum in response to e-petition",
            "webUrl":"https://www.theguardian.com/politics/2016/jul/09/government-dashes-hopes-of-second-eu-referendum-in-e-petition-response",
            "apiUrl":"https://content.guardianapis.com/politics/2016/jul/09/government-dashes-hopes-of-second-eu-referendum-in-e-petition-response",
            "isHosted":false
         },
         {
            "id":"politics/2016/jul/09/no-pressure-on-me-jeremy-corbyn-tells-miners-gala-as-labour-mps-de-invited",
            "type":"article",
            "sectionId":"politics",
            "sectionName":"Politics",
            "webPublicationDate":"2016-07-09T15:36:41Z",
            "webTitle":"'No pressure on me' says Corbyn, as Labour rifts undermine miners' bash",
            "webUrl":"https://www.theguardian.com/politics/2016/jul/09/no-pressure-on-me-jeremy-corbyn-tells-miners-gala-as-labour-mps-de-invited",
            "apiUrl":"https://content.guardianapis.com/politics/2016/jul/09/no-pressure-on-me-jeremy-corbyn-tells-miners-gala-as-labour-mps-de-invited",
            "isHosted":false
         },
         {
            "id":"politics/2016/jul/09/andrea-leadsom-under-fire-over-misquoted-motherhood-comments",
            "type":"article",
            "sectionId":"politics",
            "sectionName":"Politics",
            "webPublicationDate":"2016-07-09T14:48:17Z",
            "webTitle":"Andrea Leadsom urged to sign 'clean campaign pledge' amid motherhood row",
            "webUrl":"https://www.theguardian.com/politics/2016/jul/09/andrea-leadsom-under-fire-over-misquoted-motherhood-comments",
            "apiUrl":"https://content.guardianapis.com/politics/2016/jul/09/andrea-leadsom-under-fire-over-misquoted-motherhood-comments",
            "isHosted":false
         },
         {
            "id":"politics/2016/jul/09/philip-hammond-eu-leaders-happy-to-hold-informal-brexit-talks",
            "type":"article",
            "sectionId":"politics",
            "sectionName":"Politics",
            "webPublicationDate":"2016-07-09T13:54:28Z",
            "webTitle":"Philip Hammond: EU leaders happy to hold informal Brexit talks",
            "webUrl":"https://www.theguardian.com/politics/2016/jul/09/philip-hammond-eu-leaders-happy-to-hold-informal-brexit-talks",
            "apiUrl":"https://content.guardianapis.com/politics/2016/jul/09/philip-hammond-eu-leaders-happy-to-hold-informal-brexit-talks",
            "isHosted":false
         },
         {
            "id":"politics/2016/jul/09/angela-eagle-who-is-the-woman-taking-on-jeremy-corbyn",
            "type":"article",
            "sectionId":"politics",
            "sectionName":"Politics",
            "webPublicationDate":"2016-07-09T13:26:08Z",
            "webTitle":"Angela Eagle: who is the woman taking on Jeremy Corbyn?",
            "webUrl":"https://www.theguardian.com/politics/2016/jul/09/angela-eagle-who-is-the-woman-taking-on-jeremy-corbyn",
            "apiUrl":"https://content.guardianapis.com/politics/2016/jul/09/angela-eagle-who-is-the-woman-taking-on-jeremy-corbyn",
            "isHosted":false
         },
         {
            "id":"politics/2016/jul/09/jeremy-corbyn-set-for-leadership-challenge-after-peace-talks-fail",
            "type":"article",
            "sectionId":"politics",
            "sectionName":"Politics",
            "webPublicationDate":"2016-07-09T12:36:25Z",
            "webTitle":"Angela Eagle to announce Labour party leadership bid on Monday",
            "webUrl":"https://www.theguardian.com/politics/2016/jul/09/jeremy-corbyn-set-for-leadership-challenge-after-peace-talks-fail",
            "apiUrl":"https://content.guardianapis.com/politics/2016/jul/09/jeremy-corbyn-set-for-leadership-challenge-after-peace-talks-fail",
            "isHosted":false
         },
         {
            "id":"politics/2016/jul/09/britain-needs-bloody-difficult-women-says-theresa-may-ken-clarke",
            "type":"article",
            "sectionId":"politics",
            "sectionName":"Politics",
            "webPublicationDate":"2016-07-09T11:13:18Z",
            "webTitle":"Britain needs 'bloody difficult women', says Theresa May",
            "webUrl":"https://www.theguardian.com/politics/2016/jul/09/britain-needs-bloody-difficult-women-says-theresa-may-ken-clarke",
            "apiUrl":"https://content.guardianapis.com/politics/2016/jul/09/britain-needs-bloody-difficult-women-says-theresa-may-ken-clarke",
            "isHosted":false
         },
         {
            "id":"politics/2016/jul/09/online-outrage-greets-andrea-leadsoms-comments-about-theresa-may",
            "type":"article",
            "sectionId":"politics",
            "sectionName":"Politics",
            "webPublicationDate":"2016-07-09T11:05:42Z",
            "webTitle":"Online outrage greets Andrea Leadsom's comments about Theresa May",
            "webUrl":"https://www.theguardian.com/politics/2016/jul/09/online-outrage-greets-andrea-leadsoms-comments-about-theresa-may",
            "apiUrl":"https://content.guardianapis.com/politics/2016/jul/09/online-outrage-greets-andrea-leadsoms-comments-about-theresa-may",
            "isHosted":false
         },
         {
            "id":"politics/2016/jul/08/andrea-leadsom-suggests-she-would-make-better-pm-as-she-has-children",
            "type":"article",
            "sectionId":"politics",
            "sectionName":"Politics",
            "webPublicationDate":"2016-07-09T08:22:40Z",
            "webTitle":"Leadsom attacks 'gutter journalism' in row over motherhood quotes",
            "webUrl":"https://www.theguardian.com/politics/2016/jul/08/andrea-leadsom-suggests-she-would-make-better-pm-as-she-has-children",
            "apiUrl":"https://content.guardianapis.com/politics/2016/jul/08/andrea-leadsom-suggests-she-would-make-better-pm-as-she-has-children",
            "isHosted":false
         },
         {
            "id":"politics/2016/jul/09/jeremy-corbyns-staff-accused-of-being-petty-as-rebel-mps-aides-are-locked-out",
            "type":"article",
            "sectionId":"politics",
            "sectionName":"Politics",
            "webPublicationDate":"2016-07-09T07:00:10Z",
            "webTitle":"Jeremy Corbyn's staff accused of being 'petty' as rebel MPs' aides are locked out",
            "webUrl":"https://www.theguardian.com/politics/2016/jul/09/jeremy-corbyns-staff-accused-of-being-petty-as-rebel-mps-aides-are-locked-out",
            "apiUrl":"https://content.guardianapis.com/politics/2016/jul/09/jeremy-corbyns-staff-accused-of-being-petty-as-rebel-mps-aides-are-locked-out",
            "isHosted":false
         }
      ]
   }
}
